{
  "version": 1,
  "dependencies": [
    {
      "source": {
        "git": {
          "remote": "https://github.com/grafana/jsonnet-libs.git",
          "subdir": "ksonnet-util"
        }
      },
      "version": "a924ab1b5fd4e6eacd7235a20978d050a27bdb65",
      "sum": "/pkNOLhRqvQoPA0yYdUuJvpPHqhkCLauAUMD2ZHMIkE="
    },
    {
      "source": {
        "git": {
          "remote": "https://github.com/jsonnet-libs/docsonnet.git",
          "subdir": "doc-util"
        }
      },
      "version": "e7f3020f5733ac3dd0a1998f49591a5afd24948d",
      "sum": "YGiXub+RVwXffay0ejuoFXjkf13dinl5nD61DcpJHpc="
    },
    {
      "source": {
        "git": {
          "remote": "https://github.com/jsonnet-libs/k8s-libsonnet.git",
          "subdir": "1.26"
        }
      },
      "version": "a0779420abf73f90167d449a9e527319ced7d134",
      "sum": "q6ZaBe1Ciob0O3QbLqtEfOnCGt5rsv5A9RCFN3+Ex/I="
    },
    {
      "source": {
        "git": {
          "remote": "https://github.com/jsonnet-libs/xtd.git",
          "subdir": ""
        }
      },
      "version": "55e3a45de3bb72cee76c879f09a7ad7a476cc13f",
      "sum": "cAgY2tMVilrhpyTOcvZZGBfQJMUkJAhM4DdaL1RHKOM="
    }
  ],
  "legacyImports": false
}
