{
  "apiVersion": "tanka.dev/v1alpha1",
  "kind": "Environment",
  "metadata": {
    "name": "environments/chat-matrix/staging"
  },
  "spec": {
    "namespace": "chat-matrix-staging",
    "apiServer": "https://api.okd-c1.eclipse.org:16443",
    "resourceDefaults": {},
    "expectVersions": {},
    "injectLabels": true
  }
}
